<?xml version="1.0" encoding="UTF-8"?>
<svg width="20px" height="23px" viewBox="0 0 20 23" version="1.1" xmlns="http://www.w3.org/2000/svg" xmlns:xlink="http://www.w3.org/1999/xlink">
    <!-- Generator: Sketch 42 (36781) - http://www.bohemiancoding.com/sketch -->
    <title>dayIcon Copy</title>
    <desc>Created with Sketch.</desc>
    <defs>
        <rect id="path-1" x="0" y="20" width="20" height="3"></rect>
        <mask id="mask-2" maskContentUnits="userSpaceOnUse" maskUnits="objectBoundingBox" x="0" y="0" width="20" height="3" fill="white">
            <use xlink:href="#path-1"></use>
        </mask>
        <rect id="path-3" x="0" y="0" width="20" height="20"></rect>
        <mask id="mask-4" maskContentUnits="userSpaceOnUse" maskUnits="objectBoundingBox" x="0" y="0" width="20" height="20" fill="white">
            <use xlink:href="#path-3"></use>
        </mask>
    </defs>
    <g id="Seller_Profile" stroke="none" stroke-width="1" fill="none" fill-rule="evenodd">
        <g transform="translate(-1153.000000, -269.000000)" id="Info-block" stroke="#F4811F">
            <g transform="translate(449.000000, 210.000000)">
                <g id="Time-block" transform="translate(579.000000, 59.000000)">
                    <g id="dayIcon-Copy" transform="translate(125.000000, 0.000000)">
                        <use id="Day" mask="url(#mask-2)" stroke-width="2" fill="#F4811F" xlink:href="#path-1"></use>
                        <use id="Day" mask="url(#mask-4)" stroke-width="2" fill="#FFFFFF" xlink:href="#path-3"></use>
                        <path d="M0.5,0.5 L19.5,19.5" id="Line-Copy-2" stroke-width="0.6" stroke-linecap="square" fill="#F4811F"></path>
                        <path d="M0.5,0.5 L19.5,19.5" id="Line-Copy-3" stroke-width="0.6" stroke-linecap="square" transform="translate(10.000000, 10.000000) rotate(-90.000000) translate(-10.000000, -10.000000) "></path>
                    </g>
                </g>
            </g>
        </g>
    </g>
</svg>