<svg xmlns="http://www.w3.org/2000/svg" width="172" height="23" viewBox="0 0 172 23">
    <g fill="none" fill-rule="evenodd">
        <path fill="#FFF" d="M36.562 18.582l-3.87-15.584H31.23L30.49.172h4.237l3.744 15.93H53.06L56.247 2.88H37.806l-.66-2.736h22.337l-4.442 18.438zM53.409 19.062c-.877 0-1.589.791-1.589 1.766 0 .976.712 1.767 1.589 1.767s1.588-.791 1.588-1.767c0-.975-.711-1.766-1.588-1.766M38.15 19.062c-.878 0-1.589.791-1.589 1.766 0 .976.711 1.767 1.588 1.767.877 0 1.589-.791 1.589-1.767 0-.975-.712-1.766-1.589-1.766"/>
        <path fill="#FFF" d="M53.375 4.151H51.36c-.469 0-.853.427-.853.949v2.242c0 .521.384.948.853.948h2.016c.47 0 .853-.427.853-.948V5.1c0-.522-.384-.949-.853-.949M49.727 8.225h-3.359c-.782 0-1.421.711-1.421 1.58v3.737c0 .87.64 1.58 1.421 1.58h3.36c.781 0 1.42-.71 1.42-1.58V9.806c0-.87-.639-1.58-1.42-1.58M43.706 3.746h-2.991c-.696 0-1.266.633-1.266 1.408V8.48c0 .774.57 1.407 1.266 1.407h2.99c.697 0 1.266-.633 1.266-1.407V5.154c0-.775-.57-1.408-1.265-1.408M42.77 11.383h-1.822c-.423 0-.77.386-.77.857v2.026c0 .47.347.857.77.857h1.822c.423 0 .77-.386.77-.857V12.24c0-.471-.347-.857-.77-.857M171.99.218h-4.144l-2.703 3.239c-.647.783-1.448 1.795-2.407 3.026a2.149 2.149 0 0 0-.123-.338c-.577-1.554-.89-2.392-.936-2.515l-1.38-3.412h-3.446l3.499 8.979-7.575 9.203h4.267l2.363-2.828c1.262-1.528 2.048-2.54 2.362-3.026.168.63.53 1.667 1.079 3.115l1.054 2.74h3.719l-3.486-8.607L171.99.218zM144.254 10.425h8.303l.72-3.04h-8.298l.988-4.127h8.587l.72-3.04h-11.887l-4.33 18.182h12.525l.731-3.04h-9.329zM133.98 11.445l-.535-7.179-4.266 7.179h4.801zm.244 2.968h-6.358l-2.14 3.94h-3.39L132.383.522h3.666l1.62 17.831h-3.127l-.317-3.94zm-22.844 1.072h1.673c1.213 0 2.09-.083 2.645-.25a3.89 3.89 0 0 0 1.545-.934c.686-.656 1.279-1.532 1.783-2.624.505-1.096.8-2.387.881-3.87.07-1.265-.06-2.216-.395-2.851-.335-.636-.763-1.06-1.293-1.27-.37-.146-1.04-.22-2.011-.22h-1.912l-2.916 12.019zm-3.996 2.868L111.722.522h4.32c1.205 0 1.973.02 2.307.062a5.8 5.8 0 0 1 1.752.448 4.47 4.47 0 0 1 1.366.955c.407.411.746.901 1.024 1.478s.48 1.237.607 1.989c.127.751.168 1.569.119 2.462-.106 1.922-.532 3.628-1.271 5.115-.743 1.49-1.637 2.67-2.685 3.545-.803.681-1.82 1.184-3.048 1.512-.696.178-1.754.265-3.176.265h-5.653zM95.493.522h3.29l-2.348 9.681-.579 2.383a3.96 3.96 0 0 0-.076.573c-.039.706.16 1.287.598 1.744.438.461 1.097.69 1.982.69.795 0 1.457-.167 1.995-.499.537-.332.963-.826 1.284-1.486.323-.656.672-1.769 1.05-3.342l2.373-9.744h3.292l-2.362 9.756c-.501 2.051-1.032 3.62-1.595 4.704a6.882 6.882 0 0 1-2.431 2.653c-1.06.681-2.367 1.021-3.928 1.021-1.866 0-3.269-.506-4.206-1.523-.933-1.022-1.358-2.325-1.27-3.924a8.91 8.91 0 0 1 .135-1.083c.044-.262.211-.997.506-2.213l2.29-9.391zM85.45 11.445l-.535-7.179-4.266 7.179h4.801zm.244 2.968h-6.358l-2.14 3.94h-3.39L83.854.522h3.666l1.62 17.831h-3.128l-.317-3.94zm-24.837-1.839l3.15-.183c-.02 1.113.11 1.864.387 2.25.446.636 1.322.951 2.617.951 1.079 0 1.871-.216 2.376-.643.506-.432.777-.951.81-1.557a1.663 1.663 0 0 0-.52-1.341c-.261-.266-1-.702-2.21-1.3-1.21-.601-2.089-1.1-2.638-1.503a3.94 3.94 0 0 1-1.266-1.56c-.293-.644-.416-1.392-.369-2.25.083-1.504.64-2.745 1.673-3.737C65.9.712 67.342.218 69.193.218c1.882 0 3.311.49 4.287 1.47.977.984 1.472 2.288 1.487 3.92l-3.17.157c-.036-.851-.276-1.507-.725-1.96-.45-.452-1.135-.68-2.06-.68-.912 0-1.575.178-1.983.535-.412.357-.63.806-.66 1.35-.028.51.127.934.467 1.266.336.34 1.103.805 2.294 1.399 1.8.884 2.933 1.598 3.406 2.15.706.814 1.025 1.857.956 3.127-.087 1.573-.721 2.919-1.902 4.031-1.182 1.117-2.769 1.673-4.77 1.673-1.378 0-2.558-.257-3.538-.772-.983-.514-1.657-1.229-2.02-2.146-.364-.918-.501-1.968-.405-3.164zM32.112 13.474l1.182 4.908c-15.992-5.004-28.986-6.236-32.246 0 2.949-7.453 14.194-7.65 31.064-4.908z"/>
        <path fill="#FFF" d="M0 15.393C.742 6.466 10.463 1.407 28.889.1l2.49 10.337C11.432 8.093 2.95 11.055.944 17.012L0 15.393"/>
        <path fill="#525252" d="M0 15.393C2.16 7.491 10.619 3.808 24.342 3.933l-.5-2.163 3.575 3.306-2.18 3.935-.246-1.702C12.345 5.993 3.007 7.928.943 17.012c-.147-.253-.64-.347-.787-.6-.167-.287.011-.732-.156-1.019"/>
    </g>
</svg>
