<?xml version="1.0" encoding="UTF-8"?>
<svg width="57px" height="53px" viewBox="0 0 57 53" version="1.1" xmlns="http://www.w3.org/2000/svg" xmlns:xlink="http://www.w3.org/1999/xlink">
    <!-- Generator: Sketch 42 (36781) - http://www.bohemiancoding.com/sketch -->
    <title>Star 1</title>
    <desc>Created with Sketch.</desc>
    <defs></defs>
    <g id="Seller_Profile" stroke="none" stroke-width="1" fill="none" fill-rule="evenodd">
        <g id="Seller_UserProfile" transform="translate(-531.000000, -355.000000)" stroke="#F4811F" stroke-width="2" fill="#FFFFFF">
            <g id="Otzyv" transform="translate(450.000000, 355.000000)">
                <g id="Group" transform="translate(82.000000, 0.000000)">
                    <path d="M27.6912316,43.117776 L12.8908788,50.7410126 C11.4147215,51.5013388 10.4500671,50.7924255 10.7358168,49.1601582 L13.5551385,33.0555496 L1.58140162,21.6206947 C0.387165314,20.4802054 0.746447995,19.3666842 2.38608268,19.1332622 L18.9546456,16.7745252 L26.3452865,2.10308891 C27.0886314,0.627447206 28.2917325,0.623280001 29.0371766,2.10308891 L36.4278175,16.7745252 L52.9963804,19.1332622 C54.6350298,19.366544 54.9917867,20.4835585 53.8010615,21.6206947 L41.8273246,33.0555496 L44.6466463,49.1601582 C44.9325957,50.7935662 43.9634016,51.4991034 42.4915843,50.7410126 L27.6912316,43.117776 Z" id="Star-1"></path>
                </g>
            </g>
        </g>
    </g>
</svg>